\relax 
\providecommand\hyper@newdestlabel[2]{}
\providecommand*\new@tpo@label[2]{}
\AC@reset@newl@bel
\providecommand\HyperFirstAtBeginDocument{\AtBeginDocument}
\HyperFirstAtBeginDocument{\ifx\hyper@anchor\@undefined
\global\let\oldcontentsline\contentsline
\gdef\contentsline#1#2#3#4{\oldcontentsline{#1}{#2}{#3}}
\global\let\oldnewlabel\newlabel
\gdef\newlabel#1#2{\newlabelxx{#1}#2}
\gdef\newlabelxx#1#2#3#4#5#6{\oldnewlabel{#1}{{#2}{#3}}}
\AtEndDocument{\ifx\hyper@anchor\@undefined
\let\contentsline\oldcontentsline
\let\newlabel\oldnewlabel
\fi}
\fi}
\global\let\hyper@last\relax 
\gdef\HyperFirstAtBeginDocument#1{#1}
\providecommand\HyField@AuxAddToFields[1]{}
\providecommand\HyField@AuxAddToCoFields[2]{}
\@input{titlePage.aux}
\babel@aux{italian}{}
\babel@aux{italian}{}
\providecommand\mph@setcol[2]{}
\@writefile{toc}{\vspace {-\cftbeforepartskip }}
\@writefile{lof}{\deactivateaddvspace  }
\@writefile{lot}{\deactivateaddvspace  }
\mph@setcol{ii:1}{\mph@nr}
\mph@setcol{ii:2}{\mph@nr}
\citation{25}
\@writefile{brf}{\backcite{25}{{3}{(document)}{Doc-Start}}}
\mph@setcol{ii:3}{\mph@nr}
\mph@setcol{ii:4}{\mph@nr}
\mph@setcol{ii:5}{\mph@nr}
\mph@setcol{ii:6}{\mph@nr}
\mph@setcol{ii:7}{\mph@nr}
\mph@setcol{ii:8}{\mph@nr}
\@input{chapters/introduzione.aux}
\@input{chapters/fondamenti.aux}
\@input{chapters/obiettivo_e_metodologia.aux}
\@input{chapters/risultati.aux}
\@input{chapters/conclusione.aux}
\@input{chapters/bibliografia.aux}
\providecommand\NAT@force@numbers{}\NAT@force@numbers
\gdef\mph@lastpage{53}
\csname mph@do@warn\endcsname
