\relax 
\providecommand\hyper@newdestlabel[2]{}
\bibcite{1}{{1}{}{{}}{{}}}
\bibcite{2}{{2}{}{{}}{{}}}
\bibcite{3}{{3}{}{{}}{{}}}
\bibcite{4}{{4}{}{{}}{{}}}
\bibcite{5}{{5}{}{{}}{{}}}
\bibcite{6}{{6}{}{{}}{{}}}
\bibcite{7}{{7}{}{{}}{{}}}
\bibcite{8}{{8}{}{{}}{{}}}
\bibcite{9}{{9}{}{{}}{{}}}
\bibcite{10}{{10}{}{{}}{{}}}
\mph@setcol{ii:21}{\mph@nr}
\bibcite{11}{{11}{}{{}}{{}}}
\bibcite{12}{{12}{}{{}}{{}}}
\bibcite{13}{{13}{}{{}}{{}}}
\bibcite{14}{{14}{}{{}}{{}}}
\bibcite{15}{{15}{}{{}}{{}}}
\bibcite{16}{{16}{}{{}}{{}}}
\bibcite{17}{{17}{}{{}}{{}}}
\bibcite{18}{{18}{}{{}}{{}}}
\bibcite{19}{{19}{}{{}}{{}}}
\bibcite{20}{{20}{}{{}}{{}}}
\mph@setcol{ii:22}{\mph@nr}
\bibcite{21}{{21}{}{{}}{{}}}
\bibcite{22}{{22}{}{{}}{{}}}
\bibcite{23}{{23}{}{{}}{{}}}
\bibcite{24}{{24}{}{{}}{{}}}
\bibcite{25}{{25}{}{{}}{{}}}
\mph@setcol{ii:23}{\mph@nr}
\@setckpt{Chapters/bibliografia}{
\setcounter{page}{24}
\setcounter{equation}{0}
\setcounter{enumi}{3}
\setcounter{enumii}{0}
\setcounter{enumiii}{0}
\setcounter{enumiv}{0}
\setcounter{footnote}{0}
\setcounter{mpfootnote}{0}
\setcounter{part}{0}
\setcounter{chapter}{3}
\setcounter{section}{4}
\setcounter{subsection}{0}
\setcounter{subsubsection}{0}
\setcounter{paragraph}{0}
\setcounter{subparagraph}{0}
\setcounter{figure}{0}
\setcounter{table}{1}
\setcounter{NAT@ctr}{25}
\setcounter{parentequation}{0}
\setcounter{lstnumber}{1}
\setcounter{ContinuedFloat}{0}
\setcounter{KVtest}{0}
\setcounter{subfigure}{0}
\setcounter{subfigure@save}{0}
\setcounter{lofdepth}{1}
\setcounter{subtable}{0}
\setcounter{subtable@save}{0}
\setcounter{lotdepth}{1}
\setcounter{@pps}{0}
\setcounter{@ppsavesec}{0}
\setcounter{@ppsaveapp}{0}
\setcounter{dummy}{0}
\setcounter{Item}{3}
\setcounter{bookmark@seq@number}{14}
\setcounter{lstlisting}{0}
\setcounter{section@level}{0}
}
