\relax 
\providecommand\hyper@newdestlabel[2]{}
\mph@setcol{ii:8}{\mph@nr}
\citation{5}
\citation{5}
\citation{5}
\@writefile{toc}{\contentsline {chapter}{\numberline {2}Fondamenti}{9}{chapter.2}}
\@writefile{lof}{\addvspace {10\p@ }}
\@writefile{lot}{\addvspace {10\p@ }}
\@writefile{lol}{\addvspace {10\p@ }}
\@writefile{toc}{\contentsline {section}{\numberline {2.1}Anomalie}{9}{section.2.1}}
\@writefile{brf}{\backcite{5}{{9}{2.1}{section.2.1}}}
\@writefile{brf}{\backcite{5}{{9}{2.1}{section.2.1}}}
\@writefile{toc}{\contentsline {section}{\numberline {2.2}Etichette}{9}{section.2.2}}
\mph@setcol{ii:9}{\mph@nr}
\citation{8}
\citation{6}
\citation{2}
\citation{4}
\@writefile{brf}{\backcite{5}{{10}{2.2}{section.2.2}}}
\@writefile{brf}{\backcite{8}{{10}{2.2}{section.2.2}}}
\@writefile{brf}{\backcite{6}{{10}{2.2}{section.2.2}}}
\@writefile{toc}{\contentsline {section}{\numberline {2.3}Intrusion detection}{10}{section.2.3}}
\mph@setcol{ii:10}{\mph@nr}
\citation{3}
\citation{9}
\@writefile{brf}{\backcite{2}{{11}{2.3}{section.2.3}}}
\@writefile{brf}{\backcite{4}{{11}{2.3}{section.2.3}}}
\@writefile{toc}{\contentsline {section}{\numberline {2.4}Algoritmi di intrusion detection anomaly based}{11}{section.2.4}}
\@writefile{brf}{\backcite{3}{{11}{2.4}{section.2.4}}}
\@writefile{brf}{\backcite{9}{{11}{2.4}{section.2.4}}}
\mph@setcol{ii:11}{\mph@nr}
\citation{10}
\citation{11}
\citation{12}
\citation{13}
\citation{14}
\@writefile{brf}{\backcite{10}{{12}{2.4}{section.2.4}}}
\@writefile{brf}{\backcite{11}{{12}{2.4}{section.2.4}}}
\@writefile{brf}{\backcite{12}{{12}{2.4}{section.2.4}}}
\@writefile{brf}{\backcite{13}{{12}{2.4}{section.2.4}}}
\@writefile{brf}{\backcite{14}{{12}{2.4}{section.2.4}}}
\mph@setcol{ii:12}{\mph@nr}
\citation{15}
\citation{15}
\citation{16}
\citation{5}
\citation{17}
\citation{18}
\@writefile{brf}{\backcite{15}{{13}{2.4}{section.2.4}}}
\@writefile{brf}{\backcite{15}{{13}{2.4}{section.2.4}}}
\@writefile{brf}{\backcite{16}{{13}{2.4}{section.2.4}}}
\@writefile{brf}{\backcite{5}{{13}{2.4}{section.2.4}}}
\@writefile{brf}{\backcite{17}{{13}{2.4}{section.2.4}}}
\mph@setcol{ii:13}{\mph@nr}
\citation{19}
\citation{20}
\citation{21}
\citation{22}
\@writefile{brf}{\backcite{18}{{14}{2.4}{section.2.4}}}
\@writefile{brf}{\backcite{19}{{14}{2.4}{section.2.4}}}
\@writefile{brf}{\backcite{20}{{14}{2.4}{section.2.4}}}
\@writefile{brf}{\backcite{21}{{14}{2.4}{section.2.4}}}
\@writefile{brf}{\backcite{22}{{14}{2.4}{section.2.4}}}
\mph@setcol{ii:14}{\mph@nr}
\@writefile{toc}{\contentsline {section}{\numberline {2.5}Metriche per la valutazione degli algoritmi}{15}{section.2.5}}
\@writefile{toc}{\contentsline {section}{\numberline {2.6}Dataset}{15}{section.2.6}}
\@writefile{toc}{\contentsline {section}{\numberline {2.7}Valutazione degli algoritmi}{15}{section.2.7}}
\mph@setcol{ii:15}{\mph@nr}
\@setckpt{Chapters/fondamenti}{
\setcounter{page}{16}
\setcounter{equation}{0}
\setcounter{enumi}{0}
\setcounter{enumii}{0}
\setcounter{enumiii}{0}
\setcounter{enumiv}{0}
\setcounter{footnote}{0}
\setcounter{mpfootnote}{0}
\setcounter{part}{0}
\setcounter{chapter}{2}
\setcounter{section}{7}
\setcounter{subsection}{0}
\setcounter{subsubsection}{0}
\setcounter{paragraph}{0}
\setcounter{subparagraph}{0}
\setcounter{figure}{0}
\setcounter{table}{0}
\setcounter{NAT@ctr}{0}
\setcounter{parentequation}{0}
\setcounter{lstnumber}{1}
\setcounter{ContinuedFloat}{0}
\setcounter{KVtest}{0}
\setcounter{subfigure}{0}
\setcounter{subfigure@save}{0}
\setcounter{lofdepth}{1}
\setcounter{subtable}{0}
\setcounter{subtable@save}{0}
\setcounter{lotdepth}{1}
\setcounter{@pps}{0}
\setcounter{@ppsavesec}{0}
\setcounter{@ppsaveapp}{0}
\setcounter{dummy}{0}
\setcounter{Item}{0}
\setcounter{bookmark@seq@number}{9}
\setcounter{lstlisting}{0}
\setcounter{section@level}{0}
}
