\relax 
\providecommand\hyper@newdestlabel[2]{}
\citation{1}
\citation{2}
\citation{3}
\citation{4}
\@writefile{toc}{\contentsline {chapter}{\numberline {1}Introduzione}{7}{chapter.1}}
\@writefile{lof}{\addvspace {10\p@ }}
\@writefile{lot}{\addvspace {10\p@ }}
\@writefile{lol}{\addvspace {10\p@ }}
\@writefile{brf}{\backcite{1}{{7}{1}{chapter.1}}}
\@writefile{brf}{\backcite{2}{{7}{1}{chapter.1}}}
\@writefile{brf}{\backcite{3}{{7}{1}{chapter.1}}}
\@writefile{brf}{\backcite{4}{{7}{1}{chapter.1}}}
\mph@setcol{ii:7}{\mph@nr}
\@setckpt{Chapters/introduzione}{
\setcounter{page}{8}
\setcounter{equation}{0}
\setcounter{enumi}{0}
\setcounter{enumii}{0}
\setcounter{enumiii}{0}
\setcounter{enumiv}{0}
\setcounter{footnote}{0}
\setcounter{mpfootnote}{0}
\setcounter{part}{0}
\setcounter{chapter}{1}
\setcounter{section}{0}
\setcounter{subsection}{0}
\setcounter{subsubsection}{0}
\setcounter{paragraph}{0}
\setcounter{subparagraph}{0}
\setcounter{figure}{0}
\setcounter{table}{0}
\setcounter{NAT@ctr}{0}
\setcounter{parentequation}{0}
\setcounter{lstnumber}{1}
\setcounter{ContinuedFloat}{0}
\setcounter{KVtest}{0}
\setcounter{subfigure}{0}
\setcounter{subfigure@save}{0}
\setcounter{lofdepth}{1}
\setcounter{subtable}{0}
\setcounter{subtable@save}{0}
\setcounter{lotdepth}{1}
\setcounter{@pps}{0}
\setcounter{@ppsavesec}{0}
\setcounter{@ppsaveapp}{0}
\setcounter{dummy}{0}
\setcounter{Item}{0}
\setcounter{bookmark@seq@number}{1}
\setcounter{lstlisting}{0}
\setcounter{section@level}{0}
}
