\relax 
\providecommand\hyper@newdestlabel[2]{}
\mph@setcol{ii:16}{\mph@nr}
\@writefile{toc}{\contentsline {chapter}{\numberline {3}Obiettivo e Metodologia}{17}{chapter.3}}
\@writefile{lof}{\addvspace {10\p@ }}
\@writefile{lot}{\addvspace {10\p@ }}
\@writefile{lol}{\addvspace {10\p@ }}
\@writefile{toc}{\contentsline {section}{\numberline {3.1}Obiettivo}{17}{section.3.1}}
\@writefile{toc}{\contentsline {section}{\numberline {3.2}Algoritmi}{17}{section.3.2}}
\mph@setcol{ii:17}{\mph@nr}
\citation{23}
\citation{23}
\@writefile{lot}{\contentsline {table}{\numberline {1}{\ignorespaces Complessit\`a degli algoritmi\relax }}{18}{table.3.1}}
\@writefile{brf}{\backcite{23}{{18}{3.2}{table.3.1}}}
\@writefile{brf}{\backcite{23}{{18}{3.2}{table.3.1}}}
\mph@setcol{ii:18}{\mph@nr}
\citation{24}
\citation{25}
\@writefile{toc}{\contentsline {section}{\numberline {3.3}Strategie di combinazione}{19}{section.3.3}}
\@writefile{brf}{\backcite{24}{{19}{3.3}{section.3.3}}}
\@writefile{brf}{\backcite{25}{{19}{3.3}{section.3.3}}}
\mph@setcol{ii:19}{\mph@nr}
\@writefile{toc}{\contentsline {section}{\numberline {3.4}Metodologia della fase sperimentale}{20}{section.3.4}}
\mph@setcol{ii:20}{\mph@nr}
\@setckpt{Chapters/obiettivo_e_metodologia}{
\setcounter{page}{21}
\setcounter{equation}{0}
\setcounter{enumi}{3}
\setcounter{enumii}{0}
\setcounter{enumiii}{0}
\setcounter{enumiv}{0}
\setcounter{footnote}{0}
\setcounter{mpfootnote}{0}
\setcounter{part}{0}
\setcounter{chapter}{3}
\setcounter{section}{4}
\setcounter{subsection}{0}
\setcounter{subsubsection}{0}
\setcounter{paragraph}{0}
\setcounter{subparagraph}{0}
\setcounter{figure}{0}
\setcounter{table}{1}
\setcounter{NAT@ctr}{0}
\setcounter{parentequation}{0}
\setcounter{lstnumber}{1}
\setcounter{ContinuedFloat}{0}
\setcounter{KVtest}{0}
\setcounter{subfigure}{0}
\setcounter{subfigure@save}{0}
\setcounter{lofdepth}{1}
\setcounter{subtable}{0}
\setcounter{subtable@save}{0}
\setcounter{lotdepth}{1}
\setcounter{@pps}{0}
\setcounter{@ppsavesec}{0}
\setcounter{@ppsaveapp}{0}
\setcounter{dummy}{0}
\setcounter{Item}{3}
\setcounter{bookmark@seq@number}{14}
\setcounter{lstlisting}{0}
\setcounter{section@level}{0}
}
